{
    "categories": [
        {
            "key": "dance",
            "value": "dance",
            "color": "pink",
            "text": {
                "fi": "Tanssi",
                "en": "Dance"
            },
            "icon": "",
            "subcategories": [
                {
                    "value": "ballet",
                    "key": "ballet",
                    "text": {
                        "fi": "baletti",
                        "en": "ballet"
                    }
                },
                {
                    "value": "dance",
                    "key": "dance",
                    "text": {
                        "fi": "tanssi",
                        "en": "dance"
                    }
                }
            ]
        },
        {
            "key": "events",
            "value": "events",
            "color": "green",
            "text": {
                "fi": "Tapahtumat",
                "en": "Events"
            },
            "icon": "",
            "subcategories": [
                {
                    "value": "event",
                    "key": "event",
                    "text": {
                        "fi": "tapahtuma",
                        "en": "event"
                    }
                },
                {
                    "value": "exhibitions",
                    "key": "exhibitions",
                    "text": {
                        "fi": "näyttely",
                        "en": "exhibition"
                    }
                },
                {
                    "value": "life-management",
                    "key": "life-management",
                    "text": {
                        "fi": "elämänhallinta",
                        "en": "life-management"
                    }
                }
            ]
        },
        {
            "key": "movies",
            "value": "movies",
            "color": "purple",
            "text": {
                "fi": "Elokuvat",
                "en": "Movies"
            },
            "subcategories": [
                {
                    "value": "",
                    "key": "",
                    "text": {
                        "fi": ""
                    }

                }
            ]
        },
        {
            "key": "music",
            "value": "music",
            "color": "violet",
            "text": {
                "fi": "Musiikki",
                "en": "Music"
            },
            "subcategories": [
                {
                    "value": "classical",
                    "key": "classical",
                    "text": {
                        "fi": "klassinen",
                        "en": "classical"
                    }

                },
                {
                    "value": "dance",
                    "key": "dance",
                    "text": {
                        "fi": "tanssi"
                    }

                },
                {
                    "value": "folk",
                    "key": "folk",
                    "text": {
                        "fi": "kansanmusiikki"
                    }

                },
                {
                    "value": "hard-rock",
                    "key": "hard-rock",
                    "text": {
                        "fi": "hard-rock"
                    }

                },
                {
                    "value": "hit-dance",
                    "key": "hit-dance",
                    "text": {
                        "fi": "hit-dance"
                    }

                },
                {
                    "value": "jazz-blues",
                    "key": "jazz-blues",
                    "text": {
                        "fi": "jazz-blues"
                    }

                },
                {
                    "value": "military",
                    "key": "military",
                    "text": {
                        "fi": "sotilasmusiikki"
                    }

                },
                {
                    "value": "opera",
                    "key": "opera",
                    "text": {
                        "fi": "ooppera"
                    }

                },
                {
                    "value": "rock-pop",
                    "key": "rock-pop",
                    "text": {
                        "fi": "rock-pop"
                    }

                },
                {
                    "value": "show",
                    "key": "show",
                    "text": {
                        "fi": "show"
                    }

                }
            ]
        },
        {
            "key": "sports",
            "value": "sports",
            "color": "teal",
            "text": {
                "fi": "Urheilu",
                "en": "Sports"
            },
            "subcategories": [
                {
                    "value": "baseball",
                    "key": "baseball",
                    "text": {
                        "fi": "pesäpallo"
                    }

                },
                {
                    "value": "basketball",
                    "key": "basketball",
                    "text": {
                        "fi": "koripallo"
                    }

                },
                {
                    "value": "boxing",
                    "key": "boxing",
                    "text": {
                        "fi": "nyrkkeily"
                    }

                },
                {
                    "value": "floorbal",
                    "key": "floorball",
                    "text": {
                        "fi": "sähly"
                    }

                },
                {
                    "value": "football",
                    "key": "football",
                    "text": {
                        "fi": "jalkapallo"
                    }

                },
                {
                    "value": "hockey",
                    "key": "hockey",
                    "text": {
                        "fi": "jääkiekko"
                    }

                },
                {
                    "value": "other",
                    "key": "other",
                    "text": {
                        "fi": "muu"
                    }

                },
                {
                    "value": "volleyball",
                    "key": "volleyball",
                    "text": {
                        "fi": "lentopallo"
                    }
                }
            ]
        },
        {
            "key": "theater",
            "value": "theater",
            "color": "orange",
            "text": {
                "fi": "Teatteri",
                "en": "Theater"
            },
            "subcategories": [
                {
                    "value": "cabare",
                    "key": "cabare",
                    "text": {
                        "fi": "kabaree"
                    }

                },
                {
                    "value": "children",
                    "key": "children",
                    "text": {
                        "fi": "lasten teatteri"
                    }

                },
                {
                    "value": "comedy",
                    "key": "codemy",
                    "text": {
                        "fi": "komedia"
                    }

                },
                {
                    "value": "drama",
                    "key": "drama",
                    "text": {
                        "fi": "draama"
                    }

                },
                {
                    "value": "musical",
                    "key": "musical",
                    "text": {
                        "fi": "musikaali"
                    }

                },
                {
                    "value": "satire",
                    "key": "satire",
                    "text": {
                        "fi": "satiiri"
                    }

                },
                {
                    "value": "summer",
                    "key": "summer",
                    "text": {
                        "fi": "kesäteatteri"
                    }

                }
            ]
        }
    ],
    "cities":
        [
            {
                "text":{
                    "fi":"Alajärvi",
                    "se":"Alajärvi",
                    "en":"Alajärvi"
                    },
                "value":"Alajärvi",
                "ascii":"alajaervi"
            },
            {"text":{"fi":"Alavus","se":"Alavus","en":"Alavus"},"value":"Alavus","ascii":"alavus"},{"text":{"fi":"Alavus ","se":"Alavus ","en":"Alavus "},"value":"Alavus ","ascii":"alavus"},{"text":{"fi":"Asiakkala","se":"Asiakkala","en":"Asiakkala"},"value":"Asiakkala","ascii":"asiakkala"},{"text":{"fi":"Askola","se":"Askola","en":"Askola"},"value":"Askola","ascii":"askola"},{"text":{"fi":"Dragsfjärd","se":"Dragsfjärd","en":"Dragsfjärd"},"value":"Dragsfjärd","ascii":"dragsfjaerd"},{"text":{"fi":"Espoo","se":"Espoo","en":"Espoo"},"value":"Espoo","ascii":"espoo"},{"text":{"fi":"Eura","se":"Eura","en":"Eura"},"value":"Eura","ascii":"eura"},{"text":{"fi":"Eurajoki","se":"Eurajoki","en":"Eurajoki"},"value":"Eurajoki","ascii":"eurajoki"},{"text":{"fi":"Fiskars","se":"Fiskars","en":"Fiskars"},"value":"Fiskars","ascii":"fiskars"},{"text":{"fi":"Forssa","se":"Forssa","en":"Forssa"},"value":"Forssa","ascii":"forssa"},{"text":{"fi":"Halikko","se":"Halikko","en":"Halikko"},"value":"Halikko","ascii":"halikko"},{"text":{"fi":"Hamina","se":"Hamina","en":"Hamina"},"value":"Hamina","ascii":"hamina"},{"text":{"fi":"Hankasalmi","se":"Hankasalmi","en":"Hankasalmi"},"value":"Hankasalmi","ascii":"hankasalmi"},{"text":{"fi":"Hanko","se":"Hanko","en":"Hanko"},"value":"Hanko","ascii":"hanko"},{"text":{"fi":"Harjavalta","se":"Harjavalta","en":"Harjavalta"},"value":"Harjavalta","ascii":"harjavalta"},{"text":{"fi":"Hartola","se":"Hartola","en":"Hartola"},"value":"Hartola","ascii":"hartola"},{"text":{"fi":"Haukipudas","se":"Haukipudas","en":"Haukipudas"},"value":"Haukipudas","ascii":"haukipudas"},{"text":{"fi":"Heinola","se":"Heinola","en":"Heinola"},"value":"Heinola","ascii":"heinola"},{"text":{"fi":"Heinävesi","se":"Heinävesi","en":"Heinävesi"},"value":"Heinävesi","ascii":"heinaevesi"},{"text":{"fi":"Helsinki","se":"Helsinki","en":"Helsinki"},"value":"Helsinki","ascii":"helsinki"},{"text":{"fi":"Hollola","se":"Hollola","en":"Hollola"},"value":"Hollola","ascii":"hollola"},{"text":{"fi":"Huittinen","se":"Huittinen","en":"Huittinen"},"value":"Huittinen","ascii":"huittinen"},{"text":{"fi":"Hyvinkää","se":"Hyvinkää","en":"Hyvinkää"},"value":"Hyvinkää","ascii":"hyvinkaeae"},{"text":{"fi":"Hämeenkoski","se":"Hämeenkoski","en":"Hämeenkoski"},"value":"Hämeenkoski","ascii":"haemeenkoski"},{"text":{"fi":"Hämeenkoski ","se":"Hämeenkoski ","en":"Hämeenkoski "},"value":"Hämeenkoski ","ascii":"haemeenkoski"},{"text":{"fi":"Hämeenlinna","se":"Hämeenlinna","en":"Hämeenlinna"},"value":"Hämeenlinna","ascii":"haemeenlinna"},{"text":{"fi":"Iisalmi","se":"Iisalmi","en":"Iisalmi"},"value":"Iisalmi","ascii":"iisalmi"},{"text":{"fi":"Ikaalinen","se":"Ikaalinen","en":"Ikaalinen"},"value":"Ikaalinen","ascii":"ikaalinen"},{"text":{"fi":"Ilmajoki","se":"Ilmajoki","en":"Ilmajoki"},"value":"Ilmajoki","ascii":"ilmajoki"},{"text":{"fi":"Ilmajoki ","se":"Ilmajoki ","en":"Ilmajoki "},"value":"Ilmajoki ","ascii":"ilmajoki"},{"text":{"fi":"Imatra","se":"Imatra","en":"Imatra"},"value":"Imatra","ascii":"imatra"},{"text":{"fi":"Inari","se":"Inari","en":"Inari"},"value":"Inari","ascii":"inari"},{"text":{"fi":"Inkoo","se":"Inkoo","en":"Inkoo"},"value":"Inkoo","ascii":"inkoo"},{"text":{"fi":"Ivalo","se":"Ivalo","en":"Ivalo"},"value":"Ivalo","ascii":"ivalo"},{"text":{"fi":"Jalasjärvi","se":"Jalasjärvi","en":"Jalasjärvi"},"value":"Jalasjärvi","ascii":"jalasjaervi"},{"text":{"fi":"Janakkala","se":"Janakkala","en":"Janakkala"},"value":"Janakkala","ascii":"janakkala"},{"text":{"fi":"Joensuu","se":"Joensuu","en":"Joensuu"},"value":"Joensuu","ascii":"joensuu"},{"text":{"fi":"Joroinen","se":"Joroinen","en":"Joroinen"},"value":"Joroinen","ascii":"joroinen"},{"text":{"fi":"Joutsa","se":"Joutsa","en":"Joutsa"},"value":"Joutsa","ascii":"joutsa"},{"text":{"fi":"Juva","se":"Juva","en":"Juva"},"value":"Juva","ascii":"juva"},{"text":{"fi":"Jyväskylä","se":"Jyväskylä","en":"Jyväskylä"},"value":"Jyväskylä","ascii":"jyvaeskylae"},{"text":{"fi":"Jämijärvi","se":"Jämijärvi","en":"Jämijärvi"},"value":"Jämijärvi","ascii":"jaemijaervi"},{"text":{"fi":"Jämsä","se":"Jämsä","en":"Jämsä"},"value":"Jämsä","ascii":"jaemsae"},{"text":{"fi":"Jämsänkoski","se":"Jämsänkoski","en":"Jämsänkoski"},"value":"Jämsänkoski","ascii":"jaemsaenkoski"},{"text":{"fi":"Järvenpää","se":"Järvenpää","en":"Järvenpää"},"value":"Järvenpää","ascii":"jaervenpaeae"},{"text":{"fi":"Kaarina","se":"Kaarina","en":"Kaarina"},"value":"Kaarina","ascii":"kaarina"},{"text":{"fi":"Kajaani","se":"Kajaani","en":"Kajaani"},"value":"Kajaani","ascii":"kajaani"},{"text":{"fi":"Kangasala","se":"Kangasala","en":"Kangasala"},"value":"Kangasala","ascii":"kangasala"},{"text":{"fi":"Kangasniemi","se":"Kangasniemi","en":"Kangasniemi"},"value":"Kangasniemi","ascii":"kangasniemi"},{"text":{"fi":"Kankaanpää","se":"Kankaanpää","en":"Kankaanpää"},"value":"Kankaanpää","ascii":"kankaanpaeae"},{"text":{"fi":"Karjaa","se":"Karjaa","en":"Karjaa"},"value":"Karjaa","ascii":"karjaa"},{"text":{"fi":"Karkkila","se":"Karkkila","en":"Karkkila"},"value":"Karkkila","ascii":"karkkila"},{"text":{"fi":"Karstula","se":"Karstula","en":"Karstula"},"value":"Karstula","ascii":"karstula"},{"text":{"fi":"Kauhava","se":"Kauhava","en":"Kauhava"},"value":"Kauhava","ascii":"kauhava"},{"text":{"fi":"Kauniainen","se":"Kauniainen","en":"Kauniainen"},"value":"Kauniainen","ascii":"kauniainen"},{"text":{"fi":"Kaustinen","se":"Kaustinen","en":"Kaustinen"},"value":"Kaustinen","ascii":"kaustinen"},{"text":{"fi":"Kellokoski","se":"Kellokoski","en":"Kellokoski"},"value":"Kellokoski","ascii":"kellokoski"},{"text":{"fi":"Kemi","se":"Kemi","en":"Kemi"},"value":"Kemi","ascii":"kemi"},{"text":{"fi":"Kemijärvi","se":"Kemijärvi","en":"Kemijärvi"},"value":"Kemijärvi","ascii":"kemijaervi"},{"text":{"fi":"Kemiö","se":"Kemiö","en":"Kemiö"},"value":"Kemiö","ascii":"kemioe"},{"text":{"fi":"Kempele","se":"Kempele","en":"Kempele"},"value":"Kempele","ascii":"kempele"},{"text":{"fi":"Kerava","se":"Kerava","en":"Kerava"},"value":"Kerava","ascii":"kerava"},{"text":{"fi":"Kerimäki","se":"Kerimäki","en":"Kerimäki"},"value":"Kerimäki","ascii":"kerimaeki"},{"text":{"fi":"Keuruu","se":"Keuruu","en":"Keuruu"},"value":"Keuruu","ascii":"keuruu"},{"text":{"fi":"Kirkkonummi","se":"Kirkkonummi","en":"Kirkkonummi"},"value":"Kirkkonummi","ascii":"kirkkonummi"},{"text":{"fi":"Kittilä","se":"Kittilä","en":"Kittilä"},"value":"Kittilä","ascii":"kittilae"},{"text":{"fi":"Kokkola","se":"Kokkola","en":"Kokkola"},"value":"Kokkola","ascii":"kokkola"},{"text":{"fi":"Kolari","se":"Kolari","en":"Kolari"},"value":"Kolari","ascii":"kolari"},{"text":{"fi":"Konnevesi","se":"Konnevesi","en":"Konnevesi"},"value":"Konnevesi","ascii":"konnevesi"},{"text":{"fi":"Kotka","se":"Kotka","en":"Kotka"},"value":"Kotka","ascii":"kotka"},{"text":{"fi":"Kouvola","se":"Kouvola","en":"Kouvola"},"value":"Kouvola","ascii":"kouvola"},{"text":{"fi":"Kristiinankaupunki","se":"Kristiinankaupunki","en":"Kristiinankaupunki"},"value":"Kristiinankaupunki","ascii":"kristiinankaupunki"},{"text":{"fi":"Kuhmo","se":"Kuhmo","en":"Kuhmo"},"value":"Kuhmo","ascii":"kuhmo"},{"text":{"fi":"Kuopio","se":"Kuopio","en":"Kuopio"},"value":"Kuopio","ascii":"kuopio"},{"text":{"fi":"Kuortane","se":"Kuortane","en":"Kuortane"},"value":"Kuortane","ascii":"kuortane"},{"text":{"fi":"Kuortane ","se":"Kuortane ","en":"Kuortane "},"value":"Kuortane ","ascii":"kuortane"},{"text":{"fi":"Kurikka","se":"Kurikka","en":"Kurikka"},"value":"Kurikka","ascii":"kurikka"},{"text":{"fi":"Kuru","se":"Kuru","en":"Kuru"},"value":"Kuru","ascii":"kuru"},{"text":{"fi":"Kuusamo","se":"Kuusamo","en":"Kuusamo"},"value":"Kuusamo","ascii":"kuusamo"},{"text":{"fi":"Köyliö","se":"Köyliö","en":"Köyliö"},"value":"Köyliö","ascii":"koeylioe"},{"text":{"fi":"Lahti","se":"Lahti","en":"Lahti"},"value":"Lahti","ascii":"lahti"},{"text":{"fi":"Laitila","se":"Laitila","en":"Laitila"},"value":"Laitila","ascii":"laitila"},{"text":{"fi":"Lannevesi","se":"Lannevesi","en":"Lannevesi"},"value":"Lannevesi","ascii":"lannevesi"},{"text":{"fi":"Lappeenranta","se":"Lappeenranta","en":"Lappeenranta"},"value":"Lappeenranta","ascii":"lappeenranta"},{"text":{"fi":"Lappi tl","se":"Lappi tl","en":"Lappi tl"},"value":"Lappi tl","ascii":"lappi"},{"text":{"fi":"Lapua","se":"Lapua","en":"Lapua"},"value":"Lapua","ascii":"lapua"},{"text":{"fi":"Laukaa","se":"Laukaa","en":"Laukaa"},"value":"Laukaa","ascii":"laukaa"},{"text":{"fi":"Lemi","se":"Lemi","en":"Lemi"},"value":"Lemi","ascii":"lemi"},{"text":{"fi":"Lempäälä","se":"Lempäälä","en":"Lempäälä"},"value":"Lempäälä","ascii":"lempaeaelae"},{"text":{"fi":"Leppävirta","se":"Leppävirta","en":"Leppävirta"},"value":"Leppävirta","ascii":"leppaevirta"},{"text":{"fi":"Levi","se":"Levi","en":"Levi"},"value":"Levi","ascii":"levi"},{"text":{"fi":"Lieksa","se":"Lieksa","en":"Lieksa"},"value":"Lieksa","ascii":"lieksa"},{"text":{"fi":"Lieto","se":"Lieto","en":"Lieto"},"value":"Lieto","ascii":"lieto"},{"text":{"fi":"Lohja","se":"Lohja","en":"Lohja"},"value":"Lohja","ascii":"lohja"},{"text":{"fi":"Loimaa","se":"Loimaa","en":"Loimaa"},"value":"Loimaa","ascii":"loimaa"},{"text":{"fi":"Loviisa","se":"Loviisa","en":"Loviisa"},"value":"Loviisa","ascii":"loviisa"},{"text":{"fi":"Luhanka","se":"Luhanka","en":"Luhanka"},"value":"Luhanka","ascii":"luhanka"},{"text":{"fi":"Luhanka ","se":"Luhanka ","en":"Luhanka "},"value":"Luhanka ","ascii":"luhanka"},{"text":{"fi":"Luopajärvi","se":"Luopajärvi","en":"Luopajärvi"},"value":"Luopajärvi","ascii":"luopajaervi"},{"text":{"fi":"Masku","se":"Masku","en":"Masku"},"value":"Masku","ascii":"masku"},{"text":{"fi":"Merikarvia","se":"Merikarvia","en":"Merikarvia"},"value":"Merikarvia","ascii":"merikarvia"},{"text":{"fi":"Merimasku","se":"Merimasku","en":"Merimasku"},"value":"Merimasku","ascii":"merimasku"},{"text":{"fi":"Messilä","se":"Messilä","en":"Messilä"},"value":"Messilä","ascii":"messilae"},{"text":{"fi":"Mikkeli","se":"Mikkeli","en":"Mikkeli"},"value":"Mikkeli","ascii":"mikkeli"},{"text":{"fi":"Muonio","se":"Muonio","en":"Muonio"},"value":"Muonio","ascii":"muonio"},{"text":{"fi":"Mustio","se":"Mustio","en":"Mustio"},"value":"Mustio","ascii":"mustio"},{"text":{"fi":"Muurame","se":"Muurame","en":"Muurame"},"value":"Muurame","ascii":"muurame"},{"text":{"fi":"Mynämäki","se":"Mynämäki","en":"Mynämäki"},"value":"Mynämäki","ascii":"mynaemaeki"},{"text":{"fi":"Mäntsälä","se":"Mäntsälä","en":"Mäntsälä"},"value":"Mäntsälä","ascii":"maentsaelae"},{"text":{"fi":"Mänttä-Vilppula","se":"Mänttä-Vilppula","en":"Mänttä-Vilppula"},"value":"Mänttä-Vilppula","ascii":"maenttae"},{"text":{"fi":"Mänttä-Vilppula  ","se":"Mänttä-Vilppula  ","en":"Mänttä-Vilppula  "},"value":"Mänttä-Vilppula  ","ascii":"maenttae"},{"text":{"fi":"Naantali","se":"Naantali","en":"Naantali"},"value":"Naantali","ascii":"naantali"},{"text":{"fi":"Nauvo","se":"Nauvo","en":"Nauvo"},"value":"Nauvo","ascii":"nauvo"},{"text":{"fi":"Nokia","se":"Nokia","en":"Nokia"},"value":"Nokia","ascii":"nokia"},{"text":{"fi":"Noormarkku","se":"Noormarkku","en":"Noormarkku"},"value":"Noormarkku","ascii":"noormarkku"},{"text":{"fi":"Nuijamaa","se":"Nuijamaa","en":"Nuijamaa"},"value":"Nuijamaa","ascii":"nuijamaa"},{"text":{"fi":"Nummela","se":"Nummela","en":"Nummela"},"value":"Nummela","ascii":"nummela"},{"text":{"fi":"Nurmes","se":"Nurmes","en":"Nurmes"},"value":"Nurmes","ascii":"nurmes"},{"text":{"fi":"Nurmijärvi","se":"Nurmijärvi","en":"Nurmijärvi"},"value":"Nurmijärvi","ascii":"nurmijaervi"},{"text":{"fi":"Orimattila","se":"Orimattila","en":"Orimattila"},"value":"Orimattila","ascii":"orimattila"},{"text":{"fi":"Orivesi","se":"Orivesi","en":"Orivesi"},"value":"Orivesi","ascii":"orivesi"},{"text":{"fi":"Oulu","se":"Oulu","en":"Oulu"},"value":"Oulu","ascii":"oulu"},{"text":{"fi":"Paimio","se":"Paimio","en":"Paimio"},"value":"Paimio","ascii":"paimio"},{"text":{"fi":"Palokka","se":"Palokka","en":"Palokka"},"value":"Palokka","ascii":"palokka"},{"text":{"fi":"Parainen","se":"Parainen","en":"Parainen"},"value":"Parainen","ascii":"parainen"},{"text":{"fi":"Parikkala","se":"Parikkala","en":"Parikkala"},"value":"Parikkala","ascii":"parikkala"},{"text":{"fi":"Pello","se":"Pello","en":"Pello"},"value":"Pello","ascii":"pello"},{"text":{"fi":"Pernaja","se":"Pernaja","en":"Pernaja"},"value":"Pernaja","ascii":"pernaja"},{"text":{"fi":"Petäjävesi","se":"Petäjävesi","en":"Petäjävesi"},"value":"Petäjävesi","ascii":"petaejaevesi"},{"text":{"fi":"Pieksämäki","se":"Pieksämäki","en":"Pieksämäki"},"value":"Pieksämäki","ascii":"pieksaemaeki"},{"text":{"fi":"Pieksämäki ","se":"Pieksämäki ","en":"Pieksämäki "},"value":"Pieksämäki ","ascii":"pieksaemaeki"},{"text":{"fi":"Pielavesi","se":"Pielavesi","en":"Pielavesi"},"value":"Pielavesi","ascii":"pielavesi"},{"text":{"fi":"Pietarsaari","se":"Pietarsaari","en":"Pietarsaari"},"value":"Pietarsaari","ascii":"pietarsaari"},{"text":{"fi":"Pihtipudas","se":"Pihtipudas","en":"Pihtipudas"},"value":"Pihtipudas","ascii":"pihtipudas"},{"text":{"fi":"Piikkiö","se":"Piikkiö","en":"Piikkiö"},"value":"Piikkiö","ascii":"piikkioe"},{"text":{"fi":"Pirkkala","se":"Pirkkala","en":"Pirkkala"},"value":"Pirkkala","ascii":"pirkkala"},{"text":{"fi":"Pohjankuru","se":"Pohjankuru","en":"Pohjankuru"},"value":"Pohjankuru","ascii":"pohjankuru"},{"text":{"fi":"Pori","se":"Pori","en":"Pori"},"value":"Pori","ascii":"pori"},{"text":{"fi":"Porvoo","se":"Porvoo","en":"Porvoo"},"value":"Porvoo","ascii":"porvoo"},{"text":{"fi":"Posio","se":"Posio","en":"Posio"},"value":"Posio","ascii":"posio"},{"text":{"fi":"Pusula","se":"Pusula","en":"Pusula"},"value":"Pusula","ascii":"pusula"},{"text":{"fi":"Pälkäne","se":"Pälkäne","en":"Pälkäne"},"value":"Pälkäne","ascii":"paelkaene"},{"text":{"fi":"Raahe","se":"Raahe","en":"Raahe"},"value":"Raahe","ascii":"raahe"},{"text":{"fi":"Raahe ","se":"Raahe ","en":"Raahe "},"value":"Raahe ","ascii":"raahe"},{"text":{"fi":"Raisio","se":"Raisio","en":"Raisio"},"value":"Raisio","ascii":"raisio"},{"text":{"fi":"Rantasalmi","se":"Rantasalmi","en":"Rantasalmi"},"value":"Rantasalmi","ascii":"rantasalmi"},{"text":{"fi":"Rauma","se":"Rauma","en":"Rauma"},"value":"Rauma","ascii":"rauma"},{"text":{"fi":"Riihimäki","se":"Riihimäki","en":"Riihimäki"},"value":"Riihimäki","ascii":"riihimaeki"},{"text":{"fi":"Ristiina","se":"Ristiina","en":"Ristiina"},"value":"Ristiina","ascii":"ristiina"},{"text":{"fi":"Rovaniemi","se":"Rovaniemi","en":"Rovaniemi"},"value":"Rovaniemi","ascii":"rovaniemi"},{"text":{"fi":"Ruovesi","se":"Ruovesi","en":"Ruovesi"},"value":"Ruovesi","ascii":"ruovesi"},{"text":{"fi":"Saarijärvi","se":"Saarijärvi","en":"Saarijärvi"},"value":"Saarijärvi","ascii":"saarijaervi"},{"text":{"fi":"Saariselkä","se":"Saariselkä","en":"Saariselkä"},"value":"Saariselkä","ascii":"saariselkae"},{"text":{"fi":"Salla","se":"Salla","en":"Salla"},"value":"Salla","ascii":"salla"},{"text":{"fi":"Salmentaka, Pälkäne","se":"Salmentaka, Pälkäne","en":"Salmentaka, Pälkäne"},"value":"Salmentaka, Pälkäne","ascii":"salmentaka"},{"text":{"fi":"Salo","se":"Salo","en":"Salo"},"value":"Salo","ascii":"salo"},{"text":{"fi":"Sastamala","se":"Sastamala","en":"Sastamala"},"value":"Sastamala","ascii":"sastamala"},{"text":{"fi":"Savitaipale","se":"Savitaipale","en":"Savitaipale"},"value":"Savitaipale","ascii":"savitaipale"},{"text":{"fi":"Savonlinna","se":"Savonlinna","en":"Savonlinna"},"value":"Savonlinna","ascii":"savonlinna"},{"text":{"fi":"Seinäjoki","se":"Seinäjoki","en":"Seinäjoki"},"value":"Seinäjoki","ascii":"seinaejoki"},{"text":{"fi":"Siilinjärvi","se":"Siilinjärvi","en":"Siilinjärvi"},"value":"Siilinjärvi","ascii":"siilinjaervi"},{"text":{"fi":"Sipoo","se":"Sipoo","en":"Sipoo"},"value":"Sipoo","ascii":"sipoo"},{"text":{"fi":"Sirkka","se":"Sirkka","en":"Sirkka"},"value":"Sirkka","ascii":"sirkka"},{"text":{"fi":"Siuntio","se":"Siuntio","en":"Siuntio"},"value":"Siuntio","ascii":"siuntio"},{"text":{"fi":"Siuntio ","se":"Siuntio ","en":"Siuntio "},"value":"Siuntio ","ascii":"siuntio"},{"text":{"fi":"Sodankylä","se":"Sodankylä","en":"Sodankylä"},"value":"Sodankylä","ascii":"sodankylae"},{"text":{"fi":"Somero","se":"Somero","en":"Somero"},"value":"Somero","ascii":"somero"},{"text":{"fi":"Sotkamo","se":"Sotkamo","en":"Sotkamo"},"value":"Sotkamo","ascii":"sotkamo"},{"text":{"fi":"Sumiainen","se":"Sumiainen","en":"Sumiainen"},"value":"Sumiainen","ascii":"sumiainen"},{"text":{"fi":"Suolahti","se":"Suolahti","en":"Suolahti"},"value":"Suolahti","ascii":"suolahti"},{"text":{"fi":"Sysmä","se":"Sysmä","en":"Sysmä"},"value":"Sysmä","ascii":"sysmae"},{"text":{"fi":"Säkylä","se":"Säkylä","en":"Säkylä"},"value":"Säkylä","ascii":"saekylae"},{"text":{"fi":"Säviä","se":"Säviä","en":"Säviä"},"value":"Säviä","ascii":"saeviae"},{"text":{"fi":"Taalintehdas","se":"Taalintehdas","en":"Taalintehdas"},"value":"Taalintehdas","ascii":"taalintehdas"},{"text":{"fi":"Tahkovuori","se":"Tahkovuori","en":"Tahkovuori"},"value":"Tahkovuori","ascii":"tahkovuori"},{"text":{"fi":"Taivalkoski","se":"Taivalkoski","en":"Taivalkoski"},"value":"Taivalkoski","ascii":"taivalkoski"},{"text":{"fi":"Tallinna","se":"Tallinna","en":"Tallinna"},"value":"Tallinna","ascii":"tallinna"},{"text":{"fi":"Tammisaari","se":"Tammisaari","en":"Tammisaari"},"value":"Tammisaari","ascii":"tammisaari"},{"text":{"fi":"Tampere","se":"Tampere","en":"Tampere"},"value":"Tampere","ascii":"tampere"},{"text":{"fi":"Toivakka","se":"Toivakka","en":"Toivakka"},"value":"Toivakka","ascii":"toivakka"},{"text":{"fi":"Tolkkinen","se":"Tolkkinen","en":"Tolkkinen"},"value":"Tolkkinen","ascii":"tolkkinen"},{"text":{"fi":"Tornio","se":"Tornio","en":"Tornio"},"value":"Tornio","ascii":"tornio"},{"text":{"fi":"Turku","se":"Turku","en":"Turku"},"value":"Turku","ascii":"turku"},{"text":{"fi":"Tuusula","se":"Tuusula","en":"Tuusula"},"value":"Tuusula","ascii":"tuusula"},{"text":{"fi":"Utsjoki","se":"Utsjoki","en":"Utsjoki"},"value":"Utsjoki","ascii":"utsjoki"},{"text":{"fi":"Utö","se":"Utö","en":"Utö"},"value":"Utö","ascii":"utoe"},{"text":{"fi":"Uurainen","se":"Uurainen","en":"Uurainen"},"value":"Uurainen","ascii":"uurainen"},{"text":{"fi":"Uusikaupunki","se":"Uusikaupunki","en":"Uusikaupunki"},"value":"Uusikaupunki","ascii":"uusikaupunki"},{"text":{"fi":"Vaasa","se":"Vaasa","en":"Vaasa"},"value":"Vaasa","ascii":"vaasa"},{"text":{"fi":"Valkeakoski","se":"Valkeakoski","en":"Valkeakoski"},"value":"Valkeakoski","ascii":"valkeakoski"},{"text":{"fi":"Vammala","se":"Vammala","en":"Vammala"},"value":"Vammala","ascii":"vammala"},{"text":{"fi":"Vantaa","se":"Vantaa","en":"Vantaa"},"value":"Vantaa","ascii":"vantaa"},{"text":{"fi":"Varkaus","se":"Varkaus","en":"Varkaus"},"value":"Varkaus","ascii":"varkaus"},{"text":{"fi":"Verla","se":"Verla","en":"Verla"},"value":"Verla","ascii":"verla"},{"text":{"fi":"Vierumäki","se":"Vierumäki","en":"Vierumäki"},"value":"Vierumäki","ascii":"vierumaeki"},{"text":{"fi":"Vihti","se":"Vihti","en":"Vihti"},"value":"Vihti","ascii":"vihti"},{"text":{"fi":"Viitasaari","se":"Viitasaari","en":"Viitasaari"},"value":"Viitasaari","ascii":"viitasaari"},{"text":{"fi":"Vimpeli","se":"Vimpeli","en":"Vimpeli"},"value":"Vimpeli","ascii":"vimpeli"},{"text":{"fi":"Vimpeli ","se":"Vimpeli ","en":"Vimpeli "},"value":"Vimpeli ","ascii":"vimpeli"},{"text":{"fi":"Virolahti","se":"Virolahti","en":"Virolahti"},"value":"Virolahti","ascii":"virolahti"},{"text":{"fi":"Virrat","se":"Virrat","en":"Virrat"},"value":"Virrat","ascii":"virrat"},{"text":{"fi":"Vuokatti","se":"Vuokatti","en":"Vuokatti"},"value":"Vuokatti","ascii":"vuokatti"},{"text":{"fi":"Ylistaro","se":"Ylistaro","en":"Ylistaro"},"value":"Ylistaro","ascii":"ylistaro"},{"text":{"fi":"Ylivieska","se":"Ylivieska","en":"Ylivieska"},"value":"Ylivieska","ascii":"ylivieska"},{"text":{"fi":"Ylläs","se":"Ylläs","en":"Ylläs"},"value":"Ylläs","ascii":"yllaes"},{"text":{"fi":"Ylöjärvi","se":"Ylöjärvi","en":"Ylöjärvi"},"value":"Ylöjärvi","ascii":"yloejaervi"},{"text":{"fi":"Ypäjä","se":"Ypäjä","en":"Ypäjä"},"value":"Ypäjä","ascii":"ypaejae"},{"text":{"fi":"Ähtäri","se":"Ähtäri","en":"Ähtäri"},"value":"Ähtäri","ascii":"aehtaeri"},{"text":{"fi":"Äänekoski","se":"Äänekoski","en":"Äänekoski"},"value":"Äänekoski","ascii":"aeaenekoski"}
    ]
}